# NAME 		: higgs
# DATA 		: 0
# AF2 		: 0
# PRIORITY 	: 0

mc16_13TeV.345324.PowhegPythia8EvtGen_NNLOPS_NN30_ggH125_WWlvlv_EF_15_5.deriv.DAOD_SUSY16.e5769_s3126_r9364_p3652
mc16_13TeV.345120.PowhegPy8EG_NNLOPS_nnlo_30_ggH125_tautaul13l7.deriv.DAOD_SUSY16.e5814_s3126_r9364_p3652
mc16_13TeV.345097.PowhegPythia8EvtGen_NNLOPS_nnlo_30_ggH125_mumu.deriv.DAOD_SUSY16.e5732_s3126_r9364_p3652
mc16_13TeV.342283.PowhegPythia8EvtGen_CT10_AZNLOCTEQ6L1_VBFH125_inc.deriv.DAOD_SUSY16.e4246_s3126_r9364_p3652
mc16_13TeV.342284.Pythia8EvtGen_A14NNPDF23LO_WH125_inc.deriv.DAOD_SUSY16.e4246_s3126_r9364_p3652
mc16_13TeV.342285.Pythia8EvtGen_A14NNPDF23LO_ZH125_inc.deriv.DAOD_SUSY16.e4246_s3126_r9364_p3652
mc16_13TeV.343365.aMcAtNloPythia8EvtGen_A14_NNPDF23_NNPDF30ME_ttH125_dilep.deriv.DAOD_SUSY16.e4706_s3126_r9364_p3652
mc16_13TeV.343366.aMcAtNloPythia8EvtGen_A14_NNPDF23_NNPDF30ME_ttH125_semilep.deriv.DAOD_SUSY16.e4706_s3126_r9364_p3652
mc16_13TeV.343367.aMcAtNloPythia8EvtGen_A14_NNPDF23_NNPDF30ME_ttH125_allhad.deriv.DAOD_SUSY16.e4706_s3126_r9364_p3652

