# NAME          : diboson_semiLep_gg
# Data          : 0
# AF2           : 0
# PRIORITY      : 0

mc16_13TeV.364302.Sherpa_222_NNPDF30NNLO_ggZllZqq.deriv.DAOD_SUSY20.e6273_s3126_r9364_p5241
mc16_13TeV.364303.Sherpa_222_NNPDF30NNLO_ggZvvZqq.deriv.DAOD_SUSY20.e6273_s3126_r9364_p5241
mc16_13TeV.364304.Sherpa_222_NNPDF30NNLO_ggWmlvWpqq.deriv.DAOD_SUSY20.e6273_s3126_r9364_p5241
mc16_13TeV.364305.Sherpa_222_NNPDF30NNLO_ggWplvWmqq.deriv.DAOD_SUSY20.e6273_s3126_r9364_p5241
