# NAME          : MGPy8EG_A14N23LO_%3_%4_%5_%6_MET75
# DATA          : 0
# AF2           : 1
# PRIORITY      : 0

mc16_13TeV.500962.MGPy8EG_A14N23LO_N2C1p_150p7_150p35_150p0_MET75.deriv.DAOD_SUSY20.e8253_a875_r9364_p5243
mc16_13TeV.500963.MGPy8EG_A14N23LO_N2C1p_151p0_150p5_150p0_MET75.deriv.DAOD_SUSY20.e8253_a875_r9364_p5243
mc16_13TeV.500964.MGPy8EG_A14N23LO_N2C1p_150p5_150p5_150p0_MET75.deriv.DAOD_SUSY20.e8253_a875_r9364_p5243
mc16_13TeV.500965.MGPy8EG_A14N23LO_N2C1p_151p0_151p0_150p0_MET75.deriv.DAOD_SUSY20.e8253_a875_r9364_p5243
mc16_13TeV.500966.MGPy8EG_A14N23LO_N2C1m_150p7_150p35_150p0_MET75.deriv.DAOD_SUSY20.e8253_a875_r9364_p5243
mc16_13TeV.500967.MGPy8EG_A14N23LO_N2C1m_151p0_150p5_150p0_MET75.deriv.DAOD_SUSY20.e8253_a875_r9364_p5243
mc16_13TeV.500968.MGPy8EG_A14N23LO_N2C1m_150p5_150p5_150p0_MET75.deriv.DAOD_SUSY20.e8253_a875_r9364_p5243
mc16_13TeV.500969.MGPy8EG_A14N23LO_N2C1m_151p0_151p0_150p0_MET75.deriv.DAOD_SUSY20.e8253_a875_r9364_p5243
mc16_13TeV.500970.MGPy8EG_A14N23LO_N1C1p_150p7_150p35_150p0_MET75.deriv.DAOD_SUSY20.e8253_a875_r9364_p5243
mc16_13TeV.500971.MGPy8EG_A14N23LO_N1C1p_151p0_150p5_150p0_MET75.deriv.DAOD_SUSY20.e8253_a875_r9364_p5243
mc16_13TeV.500972.MGPy8EG_A14N23LO_N1C1p_150p5_150p5_150p0_MET75.deriv.DAOD_SUSY20.e8253_a875_r9364_p5243
mc16_13TeV.500973.MGPy8EG_A14N23LO_N1C1p_151p0_151p0_150p0_MET75.deriv.DAOD_SUSY20.e8253_a875_r9364_p5243
mc16_13TeV.500974.MGPy8EG_A14N23LO_N1C1m_150p7_150p35_150p0_MET75.deriv.DAOD_SUSY20.e8253_a875_r9364_p5243
mc16_13TeV.500975.MGPy8EG_A14N23LO_N1C1m_151p0_150p5_150p0_MET75.deriv.DAOD_SUSY20.e8253_a875_r9364_p5243
mc16_13TeV.500976.MGPy8EG_A14N23LO_N1C1m_150p5_150p5_150p0_MET75.deriv.DAOD_SUSY20.e8253_a875_r9364_p5243
mc16_13TeV.500977.MGPy8EG_A14N23LO_N1C1m_151p0_151p0_150p0_MET75.deriv.DAOD_SUSY20.e8253_a875_r9364_p5243
mc16_13TeV.500978.MGPy8EG_A14N23LO_N2N1_150p7_150p35_150p0_MET75.deriv.DAOD_SUSY20.e8253_a875_r9364_p5243
mc16_13TeV.500979.MGPy8EG_A14N23LO_N2N1_151p0_150p5_150p0_MET75.deriv.DAOD_SUSY20.e8253_a875_r9364_p5243
mc16_13TeV.500980.MGPy8EG_A14N23LO_N2N1_150p5_150p5_150p0_MET75.deriv.DAOD_SUSY20.e8253_a875_r9364_p5243
mc16_13TeV.500981.MGPy8EG_A14N23LO_C1C1_150p7_150p35_150p0_MET75.deriv.DAOD_SUSY20.e8253_a875_r9364_p5243
mc16_13TeV.500982.MGPy8EG_A14N23LO_C1C1_151p0_150p5_150p0_MET75.deriv.DAOD_SUSY20.e8253_a875_r9364_p5243
mc16_13TeV.500983.MGPy8EG_A14N23LO_C1C1_151p0_151p0_150p0_MET75.deriv.DAOD_SUSY20.e8253_a875_r9364_p5243
