# NAME          : Znnjets
# DATA          : 0
# AF2           : 0
# PRIORITY      : 0

mc16_13TeV.700335.Sh_2211_Znunu_pTV2_BFilter.deriv.DAOD_SUSY20.e8351_s3126_r9364_p5241
mc16_13TeV.700336.Sh_2211_Znunu_pTV2_CFilterBVeto.deriv.DAOD_SUSY20.e8351_s3126_r9364_p5241
mc16_13TeV.700337.Sh_2211_Znunu_pTV2_CVetoBVeto.deriv.DAOD_SUSY20.e8351_s3126_r9364_p5241
