
# NAME 		: diboson0L
# DATA 		: 0
# AF2 		: 0
# PRIORITY 	: 0

mc16_13TeV.363355.Sherpa_221_NNPDF30NNLO_ZqqZvv.deriv.DAOD_SUSY16.e5525_s3126_r10724_p3652
mc16_13TeV.363357.Sherpa_221_NNPDF30NNLO_WqqZvv.deriv.DAOD_SUSY16.e5525_s3126_r10724_p3652
mc16_13TeV.363494.Sherpa_221_NNPDF30NNLO_vvvv.deriv.DAOD_SUSY16.e5332_s3126_r10724_p3652
