
# NAME     : Zjets_lowHT
# DATA     : 0
# AF2      : 1
# PRIORITY : 0

mc16_13TeV.364358.Sherpa_221_NNPDF30NNLO_Zee_Mll2Ml_MAXHTPTV70_140.deriv.DAOD_SUSY16.e6544_a875_r10724_p3652
mc16_13TeV.364359.Sherpa_221_NNPDF30NNLO_Zmumu_Mll2Ml_MAXHTPTV70_140.deriv.DAOD_SUSY16.e6544_a875_r10724_p3652
mc16_13TeV.364361.Sherpa_221_NNPDF30NNLO_Zee_Mll2Ml_MAXHTPTV140_280.deriv.DAOD_SUSY16.e6544_a875_r10724_p3652
mc16_13TeV.364362.Sherpa_221_NNPDF30NNLO_Zmumu_Mll2Ml_MAXHTPTV140_280.deriv.DAOD_SUSY16.e6544_a875_r10724_p3652

