
# NAME 		: MGPy8EG_A14N23LO_NUHM2_mu_%5_m12_%6_N2C1p_2L2MET75_MS
# DATA 		: 0
# AF2 		: 1
# PRIORITY 	: 0

mc16_13TeV.397409.MGPy8EG_A14N23LO_NUHM2_mu_90_m12_3000_N2C1p_2L2MET75_MS.deriv.DAOD_SUSY16.e7222_a875_r10201_p3652
mc16_13TeV.397410.MGPy8EG_A14N23LO_NUHM2_mu_90_m12_5000_N2C1p_2L2MET75_MS.deriv.DAOD_SUSY16.e7222_a875_r10201_p3652
mc16_13TeV.397411.MGPy8EG_A14N23LO_NUHM2_mu_90_m12_8000_N2C1p_2L2MET75_MS.deriv.DAOD_SUSY16.e7222_a875_r10201_p3652
mc16_13TeV.397412.MGPy8EG_A14N23LO_NUHM2_mu_100_m12_800_N2C1p_2L2MET75_MS.deriv.DAOD_SUSY16.e7222_a875_r10201_p3652
mc16_13TeV.397413.MGPy8EG_A14N23LO_NUHM2_mu_100_m12_1200_N2C1p_2L2MET75_MS.deriv.DAOD_SUSY16.e7222_a875_r10201_p3652
mc16_13TeV.397414.MGPy8EG_A14N23LO_NUHM2_mu_100_m12_2000_N2C1p_2L2MET75_MS.deriv.DAOD_SUSY16.e7222_a875_r10201_p3652
mc16_13TeV.397415.MGPy8EG_A14N23LO_NUHM2_mu_100_m12_3000_N2C1p_2L2MET75_MS.deriv.DAOD_SUSY16.e7222_a875_r10201_p3652
mc16_13TeV.397416.MGPy8EG_A14N23LO_NUHM2_mu_100_m12_5000_N2C1p_2L2MET75_MS.deriv.DAOD_SUSY16.e7222_a875_r10201_p3652
mc16_13TeV.397417.MGPy8EG_A14N23LO_NUHM2_mu_100_m12_8000_N2C1p_2L2MET75_MS.deriv.DAOD_SUSY16.e7222_a875_r10201_p3652
mc16_13TeV.397418.MGPy8EG_A14N23LO_NUHM2_mu_110_m12_350_N2C1p_2L2MET75_MS.deriv.DAOD_SUSY16.e7222_a875_r10201_p3652
mc16_13TeV.397419.MGPy8EG_A14N23LO_NUHM2_mu_110_m12_500_N2C1p_2L2MET75_MS.deriv.DAOD_SUSY16.e7222_a875_r10201_p3652
mc16_13TeV.397420.MGPy8EG_A14N23LO_NUHM2_mu_110_m12_800_N2C1p_2L2MET75_MS.deriv.DAOD_SUSY16.e7222_a875_r10201_p3652
mc16_13TeV.397421.MGPy8EG_A14N23LO_NUHM2_mu_110_m12_1200_N2C1p_2L2MET75_MS.deriv.DAOD_SUSY16.e7222_a875_r10201_p3652
mc16_13TeV.397422.MGPy8EG_A14N23LO_NUHM2_mu_110_m12_2000_N2C1p_2L2MET75_MS.deriv.DAOD_SUSY16.e7222_a875_r10201_p3652
mc16_13TeV.397423.MGPy8EG_A14N23LO_NUHM2_mu_110_m12_3000_N2C1p_2L2MET75_MS.deriv.DAOD_SUSY16.e7222_a875_r10201_p3652
mc16_13TeV.397424.MGPy8EG_A14N23LO_NUHM2_mu_110_m12_5000_N2C1p_2L2MET75_MS.deriv.DAOD_SUSY16.e7222_a875_r10201_p3652
mc16_13TeV.397425.MGPy8EG_A14N23LO_NUHM2_mu_110_m12_8000_N2C1p_2L2MET75_MS.deriv.DAOD_SUSY16.e7222_a875_r10201_p3652
mc16_13TeV.397426.MGPy8EG_A14N23LO_NUHM2_mu_130_m12_350_N2C1p_2L2MET75_MS.deriv.DAOD_SUSY16.e7222_a875_r10201_p3652
mc16_13TeV.397427.MGPy8EG_A14N23LO_NUHM2_mu_130_m12_500_N2C1p_2L2MET75_MS.deriv.DAOD_SUSY16.e7222_a875_r10201_p3652
mc16_13TeV.397428.MGPy8EG_A14N23LO_NUHM2_mu_130_m12_800_N2C1p_2L2MET75_MS.deriv.DAOD_SUSY16.e7222_a875_r10201_p3652
mc16_13TeV.397429.MGPy8EG_A14N23LO_NUHM2_mu_130_m12_1200_N2C1p_2L2MET75_MS.deriv.DAOD_SUSY16.e7222_a875_r10201_p3652
mc16_13TeV.397430.MGPy8EG_A14N23LO_NUHM2_mu_130_m12_2000_N2C1p_2L2MET75_MS.deriv.DAOD_SUSY16.e7222_a875_r10201_p3652
mc16_13TeV.397431.MGPy8EG_A14N23LO_NUHM2_mu_130_m12_3000_N2C1p_2L2MET75_MS.deriv.DAOD_SUSY16.e7222_a875_r10201_p3652
mc16_13TeV.397432.MGPy8EG_A14N23LO_NUHM2_mu_130_m12_5000_N2C1p_2L2MET75_MS.deriv.DAOD_SUSY16.e7222_a875_r10201_p3652
mc16_13TeV.397433.MGPy8EG_A14N23LO_NUHM2_mu_130_m12_8000_N2C1p_2L2MET75_MS.deriv.DAOD_SUSY16.e7222_a875_r10201_p3652
mc16_13TeV.397434.MGPy8EG_A14N23LO_NUHM2_mu_150_m12_350_N2C1p_2L2MET75_MS.deriv.DAOD_SUSY16.e7222_a875_r10201_p3652
mc16_13TeV.397435.MGPy8EG_A14N23LO_NUHM2_mu_150_m12_500_N2C1p_2L2MET75_MS.deriv.DAOD_SUSY16.e7222_a875_r10201_p3652
mc16_13TeV.397436.MGPy8EG_A14N23LO_NUHM2_mu_150_m12_800_N2C1p_2L2MET75_MS.deriv.DAOD_SUSY16.e7222_a875_r10201_p3652
mc16_13TeV.397437.MGPy8EG_A14N23LO_NUHM2_mu_150_m12_1200_N2C1p_2L2MET75_MS.deriv.DAOD_SUSY16.e7222_a875_r10201_p3652
mc16_13TeV.397438.MGPy8EG_A14N23LO_NUHM2_mu_150_m12_2000_N2C1p_2L2MET75_MS.deriv.DAOD_SUSY16.e7222_a875_r10201_p3652
mc16_13TeV.397439.MGPy8EG_A14N23LO_NUHM2_mu_150_m12_3000_N2C1p_2L2MET75_MS.deriv.DAOD_SUSY16.e7222_a875_r10201_p3652
mc16_13TeV.397440.MGPy8EG_A14N23LO_NUHM2_mu_150_m12_5000_N2C1p_2L2MET75_MS.deriv.DAOD_SUSY16.e7222_a875_r10201_p3652
mc16_13TeV.397441.MGPy8EG_A14N23LO_NUHM2_mu_150_m12_8000_N2C1p_2L2MET75_MS.deriv.DAOD_SUSY16.e7222_a875_r10201_p3652
mc16_13TeV.397442.MGPy8EG_A14N23LO_NUHM2_mu_170_m12_350_N2C1p_2L2MET75_MS.deriv.DAOD_SUSY16.e7222_a875_r10201_p3652
mc16_13TeV.397443.MGPy8EG_A14N23LO_NUHM2_mu_170_m12_500_N2C1p_2L2MET75_MS.deriv.DAOD_SUSY16.e7222_a875_r10201_p3652
mc16_13TeV.397444.MGPy8EG_A14N23LO_NUHM2_mu_170_m12_800_N2C1p_2L2MET75_MS.deriv.DAOD_SUSY16.e7222_a875_r10201_p3652
mc16_13TeV.397445.MGPy8EG_A14N23LO_NUHM2_mu_170_m12_1200_N2C1p_2L2MET75_MS.deriv.DAOD_SUSY16.e7222_a875_r10201_p3652
mc16_13TeV.397446.MGPy8EG_A14N23LO_NUHM2_mu_170_m12_2000_N2C1p_2L2MET75_MS.deriv.DAOD_SUSY16.e7222_a875_r10201_p3652
mc16_13TeV.397447.MGPy8EG_A14N23LO_NUHM2_mu_170_m12_3000_N2C1p_2L2MET75_MS.deriv.DAOD_SUSY16.e7222_a875_r10201_p3652
mc16_13TeV.397448.MGPy8EG_A14N23LO_NUHM2_mu_170_m12_5000_N2C1p_2L2MET75_MS.deriv.DAOD_SUSY16.e7222_a875_r10201_p3652
mc16_13TeV.397449.MGPy8EG_A14N23LO_NUHM2_mu_200_m12_350_N2C1p_2L2MET75_MS.deriv.DAOD_SUSY16.e7222_a875_r10201_p3652
mc16_13TeV.397450.MGPy8EG_A14N23LO_NUHM2_mu_200_m12_500_N2C1p_2L2MET75_MS.deriv.DAOD_SUSY16.e7222_a875_r10201_p3652
mc16_13TeV.397451.MGPy8EG_A14N23LO_NUHM2_mu_200_m12_800_N2C1p_2L2MET75_MS.deriv.DAOD_SUSY16.e7222_a875_r10201_p3652
mc16_13TeV.397452.MGPy8EG_A14N23LO_NUHM2_mu_200_m12_1200_N2C1p_2L2MET75_MS.deriv.DAOD_SUSY16.e7222_a875_r10201_p3652
mc16_13TeV.397453.MGPy8EG_A14N23LO_NUHM2_mu_200_m12_2000_N2C1p_2L2MET75_MS.deriv.DAOD_SUSY16.e7222_a875_r10201_p3652
mc16_13TeV.397454.MGPy8EG_A14N23LO_NUHM2_mu_200_m12_3000_N2C1p_2L2MET75_MS.deriv.DAOD_SUSY16.e7222_a875_r10201_p3652
mc16_13TeV.397455.MGPy8EG_A14N23LO_NUHM2_mu_200_m12_5000_N2C1p_2L2MET75_MS.deriv.DAOD_SUSY16.e7222_a875_r10201_p3652
