
# NAME 		: diboson3L
# DATA 		: 0
# AF2 		: 0
# PRIORITY 	: 0

mc16_13TeV.364253.Sherpa_222_NNPDF30NNLO_lllv.deriv.DAOD_SUSY16.e5916_s3126_r9364_r9315_p3387
mc16_13TeV.364284.Sherpa_222_NNPDF30NNLO_lllvjj_EW6.deriv.DAOD_SUSY16.e6055_e5984_s3126_r9364_r9315_p3387
mc16_13TeV.364289.Sherpa_222_NNPDF30NNLO_lllv_lowMllPtComplement.deriv.DAOD_SUSY16.e6133_e5984_s3126_r9364_r9315_p3582
