mSlepLH2gen,mN1
281.42400773200035,1.0
281.94755667176867,5.030585858585859
282.9972586485492,9.061171717171717
283.1141818181818,9.492889483816645
284.14196545941024,13.091757575757576
285.1638794354035,17.122343434343435
286.02047989981185,21.152929292929294
286.7119394817227,25.183515151515156
287.14472727272727,28.51856030342906
287.24939847385656,29.214101010101015
287.64432056214196,33.24468686868687
287.83417656974274,37.27527272727273
287.70514562642614,41.30585858585859
287.14472727272727,44.19779411712894
286.865794945351,45.336444444444446
284.75577215228196,49.36703030303031
283.1141818181818,52.23572366490279
282.6172638796754,53.39761616161617
281.8353655566714,57.42820202020202
281.16354090600305,61.45878787878788
280.32730155528975,65.48937373737374
279.33645021778705,69.5199595959596
279.08363636363634,70.40311006975487
278.3000759004955,73.55054545454544
277.1839001116545,77.58113131313131
276.01249235955515,81.61171717171716
275.05309090909094,84.85452022499118
274.836460992295,85.64230303030303
273.7317151970094,89.67288888888888
272.7095736766236,93.70347474747473
271.9095344586464,97.73406060606062
271.76590301979434,101.76464646464646
272.2551824373371,105.79523232323234
272.8049192200176,109.82581818181818
273.18995804610375,113.85640404040404
273.2866164565103,117.8869898989899
272.99841648077506,121.91757575757575
272.2312362513858,125.9481616161616
271.0225454545455,129.5630438738116
270.8908506339957,129.97874747474748
269.0132580954541,134.00933333333333
266.992,137.30469915310564
266.54498995624357,138.0399191919192
263.73081258334867,142.07050505050503
262.96145454545456,143.11928173678382
260.5815688575056,146.1010909090909
258.9309090909091,147.98000083439646
256.5852335664573,150.13167676767677
254.9003636363637,151.2559521431055
250.8698181818182,152.58242541171523
246.83927272727277,151.40565121741287
244.67785858360747,150.13167676767677
242.8087272727273,148.83535383488802
238.77818181818185,146.1904189162978
238.64148067676248,146.1010909090909
234.7476363636364,143.6203434039718
232.09381178561046,142.07050505050503
230.71709090909096,141.2917340886466
226.6865454545455,139.15272320236542
224.3820363153609,138.0399191919192
222.656,137.22995851769434
218.62545454545457,135.49031383232426
214.6457673344416,134.00933333333333
214.5949090909091,133.9900725447502
210.56436363636368,132.5851998247551
206.53381818181822,131.30107455408006
202.7501008951492,129.97874747474748
202.50327272727276,129.89628334691128
198.4727272727273,128.06886529665823
194.96550251788491,125.94816161616161
194.44218181818187,125.60623932039364
190.4116363636364,123.07714776591564
188.42550804595376,121.91757575757578
186.38109090909094,120.71764086667426
182.35054545454548,118.36403375634569
181.5956933489693,117.8869898989899
178.32000000000002,115.84129515747219
175.44832341410262,113.85640404040404
174.2894545454546,113.1204029147498
170.25890909090913,110.44558725382103
169.31678910334603,109.82581818181819
166.22836363636367,107.92870710966538
162.50203314159086,105.79523232323233
162.1978181818182,105.62254116038558
158.16727272727275,103.47179044979077
154.78655068708275,101.76464646464646
154.1367272727273,101.41788693404301
150.10618181818185,99.06905956402397
148.42024393318485,97.73406060606061
146.0756363636364,95.80334485942137
143.74785265390412,93.70347474747474
142.04509090909093,92.15070131891062
138.62803931735746,89.67288888888888
138.0145454545455,89.28068456720386
133.98400000000004,87.4871959288784
129.95345454545458,86.40111024919557
126.08404455680095,85.64230303030303
125.9229090909091,85.61534336675496
121.89236363636365,85.46524266338034
117.8618181818182,85.37391650054902
113.83127272727273,85.04607292841743
109.80072727272729,84.20254599890583
105.77018181818184,82.26738882376125
104.82163474700991,81.61171717171716
101.73963636363638,78.51893505347255
100.71559158825536,77.5811313131313
97.70909090909093,74.70136118953845
93.67854545454549,74.74731408711605
89.64800000000002,74.42883702485223
86.13444578646855,73.55054545454544
85.61745454545456,73.4552263679481
81.5869090909091,72.12888828958933
77.55636363636366,70.39794052893527
75.7572613467343,69.5199595959596
73.5258181818182,68.44747421083741
69.49527272727275,66.32471574373685
67.97120786914446,65.48937373737374
65.46472727272729,64.05503300619014
61.434181818181834,61.68274644720895
61.05236187132971,61.45878787878788
57.40363636363638,59.17209040712692
54.62042530417273,57.42820202020202
53.37309090909092,56.5846518884522
49.34254545454547,53.90164355269805
48.567640380834675,53.39761616161617
45.31200000000001,51.10346544163393
42.79207742834884,49.36703030303031
41.28145454545456,48.23682646904184
37.29388700532273,45.336444444444446
37.250909090909104,45.30248589051169
33.22036363636365,42.23722680081833
31.955713989879673,41.30585858585859
29.1898181818182,39.10033621079787
26.819389961513565,37.27527272727273
25.159272727272747,35.893110842080546
21.8568593896947,33.24468686868687
21.12872727272729,32.6143042752986
17.098181818181835,29.259614519458236
17.04127962188665,29.214101010101015
13.067636363636382,25.796897719203614
12.326160930388083,25.183515151515156
9.037090909090924,22.26371002741856
7.735189246924074,21.152929292929294
5.006545454545471,18.65952354143926
3.2552697937730306,17.122343434343435
0.9760000000000159,14.983854847929459
