mSUSY,deltaM
137.8312,9.2277
138.5784,9.2004
142.8187,9.0466
147.8063,8.8691
150.7340,8.4948
152.7938,8.2140
155.2030,7.8433
157.7812,7.4619
159.3458,7.2418
162.7687,6.7827
163.5674,6.6864
167.7562,6.2327
168.7905,6.1736
172.7438,5.9530
177.4592,5.7002
177.7313,5.6859
182.7188,5.4427
186.2792,5.2630
187.7062,5.1005
189.0616,4.8594
188.3817,4.4867
187.7062,4.1447
187.7013,4.1426
186.9558,3.8249
186.2460,3.5316
185.1757,3.2607
184.0814,3.0107
182.7188,2.9310
177.7873,2.7798
177.7313,2.7782
172.7438,2.6397
170.4095,2.5666
167.7562,2.4707
165.2086,2.3698
162.7687,2.2770
158.8610,2.1880
157.7812,2.1465
155.8548,2.0202
152.7938,1.9354
150.1581,1.8653
147.8063,1.8093
142.8187,1.7509
139.9517,1.7222
137.8312,1.7015
132.8438,1.6441
128.4491,1.5902
127.8563,1.5810
124.0315,1.4682
122.8688,1.4355
118.5916,1.3556
117.8812,1.3426
112.8938,1.2857
107.9062,1.2764
102.9188,1.2679
101.7200,1.2516
97.9313,1.2041
94.5116,1.1557
92.9438,1.1341
88.5366,1.0670
87.9563,1.0583
83.2292,0.9852
82.9688,0.9809
78.4471,0.9096
77.9813,0.9026
73.6650,0.8399
72.9938,0.8305
72.8818,0.8399
72.2098,0.9096
71.7007,0.9852
71.2659,1.0670
71.0915,1.1557
70.9369,1.2516
70.7970,1.3556
70.6698,1.4682
70.5537,1.5902
70.4474,1.7222
70.3495,1.8653
70.2592,2.0202
70.1756,2.1880
72.9938,2.2889
75.0571,2.3698
74.9868,2.5666
74.9211,2.7798
74.8596,3.0107
74.8019,3.2607
74.7476,3.5316
74.6965,3.8249
74.6483,4.1426
74.6417,4.4867
74.6039,4.8594
74.6135,5.2630
74.6630,5.7002
74.7155,6.1736
74.7714,6.6864
74.8312,7.2418
74.8671,7.8433
77.9813,8.2440
80.0298,8.4948
80.1270,9.2004
80.2434,9.9646
80.3331,10.7922
80.4290,11.6886
80.5462,12.6595
80.7055,13.7110
80.9955,14.8499
81.1731,16.0833
80.8051,17.4192
82.9688,18.0328
86.7109,18.8661
87.0466,20.4332
87.4725,22.1304
87.9563,23.8118
92.9438,22.6005
94.3957,22.1304
97.9313,20.4389
97.9405,20.4332
99.6664,18.8661
101.3923,17.4192
102.9188,16.2324
103.1624,16.0833
106.3258,14.8499
107.9062,14.1978
110.3240,13.7110
112.8938,13.2120
115.0334,12.6595
117.8812,11.9100
118.7561,11.6886
122.4765,10.7922
122.8688,10.7040
126.2869,9.9646
127.8563,9.7496
132.8438,9.4124
137.8312,9.2277
