mC1,dMC1N1
131.1136,0.3500
131.7404,0.3524
132.7079,0.3566
134.1668,0.3631
134.2566,0.3635
135.5048,0.3697
136.7727,0.3760
136.8202,0.3763
138.1113,0.3828
139.2889,0.3887
139.4258,0.3894
140.7871,0.3960
141.8051,0.4007
142.2108,0.4025
143.7272,0.4091
144.3212,0.4116
145.3608,0.4157
146.8374,0.4213
147.1080,0.4222
149.0186,0.4288
149.3535,0.4299
151.1041,0.4354
151.8697,0.4377
153.3536,0.4419
154.3859,0.4449
155.7616,0.4485
156.9020,0.4516
158.3006,0.4551
159.4182,0.4580
160.9198,0.4616
161.9343,0.4642
163.5542,0.4682
164.4505,0.4705
166.1398,0.4747
166.9667,0.4770
168.6284,0.4813
169.4828,0.4837
170.9926,0.4879
171.9990,0.4909
173.2235,0.4944
174.5152,0.4985
175.3241,0.5010
177.0313,0.5067
177.3024,0.5076
179.1789,0.5141
179.5475,0.5155
180.9614,0.5207
182.0636,0.5250
182.6470,0.5273
184.2485,0.5338
184.5798,0.5353
185.7771,0.5404
187.0960,0.5465
187.2120,0.5470
188.5833,0.5535
189.6121,0.5589
189.8590,0.5601
191.0640,0.5667
192.1283,0.5730
192.1693,0.5732
193.2055,0.5798
194.1423,0.5864
194.6444,0.5903
194.9923,0.5929
195.7593,0.5995
196.4321,0.6061
197.0136,0.6126
197.1606,0.6146
197.5146,0.6192
197.9299,0.6258
198.2581,0.6323
198.5013,0.6389
198.6609,0.6455
198.7384,0.6520
198.7348,0.6586
198.6509,0.6652
198.4874,0.6717
198.2446,0.6783
197.9228,0.6848
197.5220,0.6914
197.1606,0.6964
197.0445,0.6980
196.4959,0.7045
195.8695,0.7111
195.1649,0.7177
194.6444,0.7221
194.3866,0.7242
193.5403,0.7308
192.6168,0.7374
192.1283,0.7406
191.6246,0.7439
190.5648,0.7505
189.6121,0.7560
189.4323,0.7571
188.2408,0.7636
187.0960,0.7696
186.9778,0.7702
185.6599,0.7768
184.5798,0.7819
184.2753,0.7833
182.8364,0.7899
182.0636,0.7933
181.3386,0.7965
179.7837,0.8030
179.5475,0.8040
178.1795,0.8096
177.0313,0.8141
176.5191,0.8162
174.8079,0.8227
174.5152,0.8238
173.0499,0.8293
171.9990,0.8331
171.2409,0.8359
169.4828,0.8421
169.3830,0.8424
167.4868,0.8490
166.9667,0.8507
165.5508,0.8556
164.4505,0.8592
163.5793,0.8621
161.9343,0.8675
161.5797,0.8687
159.5654,0.8753
159.4182,0.8757
157.5552,0.8818
156.9020,0.8839
155.5545,0.8884
154.3859,0.8922
153.5776,0.8949
151.8697,0.9007
151.6381,0.9015
149.7620,0.9081
149.3535,0.9095
147.9548,0.9146
146.8374,0.9188
146.2154,0.9212
144.5556,0.9278
144.3212,0.9287
142.9869,0.9343
141.8051,0.9395
141.4891,0.9409
140.0773,0.9475
139.2889,0.9513
138.7328,0.9540
137.4569,0.9606
136.7727,0.9643
136.2358,0.9672
135.0650,0.9737
134.2566,0.9784
133.9313,0.9803
132.8249,0.9869
131.7408,0.9934
131.7404,0.9934
130.6528,1.0000
