
# NAME 		: Zvvjets
# DATA 		: 0
# AF2 		: 0
# PRIORITY 	: 0

mc16_13TeV.364142.Sherpa_221_NNPDF30NNLO_Znunu_MAXHTPTV0_70_CVetoBVeto.deriv.DAOD_SUSY16.e5308_e5984_s3126_r10201_r10210_p3387
mc16_13TeV.364143.Sherpa_221_NNPDF30NNLO_Znunu_MAXHTPTV0_70_CFilterBVeto.deriv.DAOD_SUSY16.e5308_e5984_s3126_r10201_r10210_p3387
mc16_13TeV.364144.Sherpa_221_NNPDF30NNLO_Znunu_MAXHTPTV0_70_BFilter.deriv.DAOD_SUSY16.e5308_e5984_s3126_r10201_r10210_p3387
mc16_13TeV.364145.Sherpa_221_NNPDF30NNLO_Znunu_MAXHTPTV70_140_CVetoBVeto.deriv.DAOD_SUSY16.e5308_e5984_s3126_r10201_r10210_p3387
mc16_13TeV.364146.Sherpa_221_NNPDF30NNLO_Znunu_MAXHTPTV70_140_CFilterBVeto.deriv.DAOD_SUSY16.e5308_e5984_s3126_r10201_r10210_p3387
mc16_13TeV.364147.Sherpa_221_NNPDF30NNLO_Znunu_MAXHTPTV70_140_BFilter.deriv.DAOD_SUSY16.e5308_e5984_s3126_r10201_r10210_p3387
mc16_13TeV.364148.Sherpa_221_NNPDF30NNLO_Znunu_MAXHTPTV140_280_CVetoBVeto.deriv.DAOD_SUSY16.e5308_e5984_s3126_r10201_r10210_p3387
mc16_13TeV.364149.Sherpa_221_NNPDF30NNLO_Znunu_MAXHTPTV140_280_CFilterBVeto.deriv.DAOD_SUSY16.e5308_e5984_s3126_r10201_r10210_p3387
mc16_13TeV.364150.Sherpa_221_NNPDF30NNLO_Znunu_MAXHTPTV140_280_BFilter.deriv.DAOD_SUSY16.e5308_e5984_s3126_r10201_r10210_p3387
mc16_13TeV.364151.Sherpa_221_NNPDF30NNLO_Znunu_MAXHTPTV280_500_CVetoBVeto.deriv.DAOD_SUSY16.e5308_e5984_s3126_r10201_r10210_p3387
mc16_13TeV.364152.Sherpa_221_NNPDF30NNLO_Znunu_MAXHTPTV280_500_CFilterBVeto.deriv.DAOD_SUSY16.e5308_e5984_s3126_r10201_r10210_p3387
mc16_13TeV.364153.Sherpa_221_NNPDF30NNLO_Znunu_MAXHTPTV280_500_BFilter.deriv.DAOD_SUSY16.e5308_e5984_s3126_r10201_r10210_p3387
mc16_13TeV.364154.Sherpa_221_NNPDF30NNLO_Znunu_MAXHTPTV500_1000.deriv.DAOD_SUSY16.e5308_e5984_s3126_r10201_r10210_p3387
mc16_13TeV.364155.Sherpa_221_NNPDF30NNLO_Znunu_MAXHTPTV1000_E_CMS.deriv.DAOD_SUSY16.e5308_e5984_s3126_r10201_r10210_p3387
