# NAME          : MGPy8EG_A14N23LO_SlepSlep_dir_2L2MET75_%5_%6_FS
# Data          : 0
# AF2           : 0
# PRIORITY      : 0

mc16_13TeV.505925.MGPy8EG_A14N23LO_SlepSlep_dir_250p0_230p0_2L2MET75.deriv.DAOD_PHYS.e8319_s3126_r10724_p5001
