# NAME          : MGPy8EG_A14N23LO_%3_%4_%5_%6_MET75_FS
# DATA          : 0
# AF2           : 0
# PRIORITY      : 0

mc16_13TeV.500963.MGPy8EG_A14N23LO_N2C1p_151p0_150p5_150p0_MET75.deriv.DAOD_SUSY20.e8253_s3126_r10724_p5243
