
# NAME     : Zttjets_lowHT
# DATA     : 0
# AF2      : 1
# PRIORITY : 0

mc16_13TeV:mc16_13TeV.364360.Sherpa_221_NNPDF30NNLO_Ztautau_Mll2Ml_MAXHTPTV70_140.deriv.DAOD_SUSY16.e6544_e5984_a875_r10201_r10210_p3387
mc16_13TeV:mc16_13TeV.364363.Sherpa_221_NNPDF30NNLO_Ztautau_Mll2Ml_MAXHTPTV140_280.deriv.DAOD_SUSY16.e6544_e5984_a875_r10201_r10210_p3387

