
# NAME     : MGPy8EG_A14N23LO_SM_N2C1m_%5_%6_2LMET50_MadSpin
# DATA     : 0
# AF2      : 1
# PRIORITY : 0

mc16_13TeV:mc16_13TeV.393456.MGPy8EG_A14N23LO_SM_N2C1m_103_100_2LMET50_MadSpin.deriv.DAOD_SUSY16.e5512_e5984_a875_r9364_r9315_p3404
mc16_13TeV:mc16_13TeV.393464.MGPy8EG_A14N23LO_SM_N2C1m_155_150_2LMET50_MadSpin.deriv.DAOD_SUSY16.e5512_e5984_a875_r9364_r9315_p3404

