
# NAME 		: alt_singletop
# DATA 		: 0
# AF2 		: 0
# PRIORITY 	: 0

#410011	PowhegPythiaEvtGen_P2012_singletop_tchan_lept_top
#410012	PowhegPythiaEvtGen_P2012_singletop_tchan_lept_antitop
#410015
#410016
#410025
#410026	PowhegPythiaEvtGen_P2012_SingleTopSchan_noAllHad_antitop
