
# NAME 		 : VBFWBN2C1p_250_245_MET75 
# DATA 		 : 0 
# AF2 		 : 1 
# PRIORITY 	 : 0 

mc16_13TeV:mc16_13TeV.500272.MGPy8EG_A14N23LO_VBFWBN2C1p_250_245_MET75_MS.deriv.DAOD_EXOT5.e8088_a875_r10201_p4149