
# NAME     : VBFhiggsino_40_37_2L2MET75
# DATA     : 0
# AF2      : 1
# PRIORITY : 0

mc16_13TeV:mc16_13TeV.397964.MGPy8EG_A14N23LO_SM_N2N1HHVBFQED_40_37_2L2MET75_MadSpin.deriv.DAOD_SUSY16.e7550_e5984_a875_r9364_r9315_p3652
mc16_13TeV:mc16_13TeV.397994.MGPy8EG_A14N23LO_SM_N2C1pHHVBFQED_40_37_2L2MET75_MadSpin.deriv.DAOD_SUSY16.e7550_e5984_a875_r9364_r9315_p3652
mc16_13TeV:mc16_13TeV.398024.MGPy8EG_A14N23LO_SM_N2C1mHHVBFQED_40_37_2L2MET75_MadSpin.deriv.DAOD_SUSY16.e7550_e5984_a875_r9364_r9315_p3652
mc16_13TeV:mc16_13TeV.398054.MGPy8EG_A14N23LO_SM_C1C1HHVBFQED_40_37_2L2MET75_MadSpin.deriv.DAOD_SUSY16.e7550_e5984_a875_r9364_r9315_p3652
