
# NAME     : VBFhiggsino_60_50_2L2MET75
# DATA     : 0
# AF2      : 1
# PRIORITY : 0

mc16_13TeV:mc16_13TeV.397972.MGPy8EG_A14N23LO_SM_N2N1HHVBFQED_60_50_2L2MET75_MadSpin.deriv.DAOD_SUSY16.e7550_e5984_a875_r9364_r9315_p3652
mc16_13TeV:mc16_13TeV.398002.MGPy8EG_A14N23LO_SM_N2C1pHHVBFQED_60_50_2L2MET75_MadSpin.deriv.DAOD_SUSY16.e7550_e5984_a875_r9364_r9315_p3652
mc16_13TeV:mc16_13TeV.398032.MGPy8EG_A14N23LO_SM_N2C1mHHVBFQED_60_50_2L2MET75_MadSpin.deriv.DAOD_SUSY16.e7550_e5984_a875_r9364_r9315_p3652
mc16_13TeV:mc16_13TeV.398062.MGPy8EG_A14N23LO_SM_C1C1HHVBFQED_60_50_2L2MET75_MadSpin.deriv.DAOD_SUSY16.e7550_e5984_a875_r9364_r9315_p3652
