
# NAME 		 : QCDdijet_Pyth_AF2 
# DATA 		 : 0 
# AF2 		 : 1 
# PRIORITY 	 : 0 

mc16_13TeV.361020.Pythia8EvtGen_A14NNPDF23LO_jetjet_JZ0W.deriv.DAOD_EXOT5.e3569_a875_r10201_p4060
mc16_13TeV.361021.Pythia8EvtGen_A14NNPDF23LO_jetjet_JZ1W.deriv.DAOD_EXOT5.e3569_a875_r10201_p4060
mc16_13TeV.361022.Pythia8EvtGen_A14NNPDF23LO_jetjet_JZ2W.deriv.DAOD_EXOT5.e3668_a875_r10201_p4060
mc16_13TeV.361023.Pythia8EvtGen_A14NNPDF23LO_jetjet_JZ3W.deriv.DAOD_EXOT5.e3668_a875_r10201_p4060
mc16_13TeV.361024.Pythia8EvtGen_A14NNPDF23LO_jetjet_JZ4W.deriv.DAOD_EXOT5.e3668_a875_r10201_p4060
mc16_13TeV.361025.Pythia8EvtGen_A14NNPDF23LO_jetjet_JZ5W.deriv.DAOD_EXOT5.e3668_a875_r10201_p4060
mc16_13TeV.361026.Pythia8EvtGen_A14NNPDF23LO_jetjet_JZ6W.deriv.DAOD_EXOT5.e3569_a875_r10201_p4060
mc16_13TeV.361028.Pythia8EvtGen_A14NNPDF23LO_jetjet_JZ8W.deriv.DAOD_EXOT5.e3569_a875_r10201_p4060
mc16_13TeV.361029.Pythia8EvtGen_A14NNPDF23LO_jetjet_JZ9W.deriv.DAOD_EXOT5.e3668_a875_r10201_p4060