
# NAME 		 : SingleTop_tchan_BW50 
# DATA 		 : 0 
# AF2 		 : 0 
# PRIORITY 	 : 0 

mc16_13TeV.410658.PhPy8EG_A14_tchan_BW50_lept_top.deriv.DAOD_EXOT5.e6671_s3126_r10201_p4060
mc16_13TeV.410659.PhPy8EG_A14_tchan_BW50_lept_antitop.deriv.DAOD_EXOT5.e6671_s3126_r10201_p4060