
# NAME 		 : Strong_Wjets_Sh227_KtMerging 
# DATA 		 : 0 
# AF2 		 : 0 
# PRIORITY 	 : 0 

mc16_13TeV.312496.Sh_227_NN30NNLO_Wenu_PTV100_140_MJJ0_500_KtMerging.deriv.DAOD_EXOT5.e7739_s3126_r10201_p4060
mc16_13TeV.312497.Sh_227_NN30NNLO_Wenu_PTV100_140_MJJ500_1000_KtMerging.deriv.DAOD_EXOT5.e7739_s3126_r10201_p4060
mc16_13TeV.312498.Sh_227_NN30NNLO_Wenu_PTV100_140_MJJ1000_E_CMS_KtMerging.deriv.DAOD_EXOT5.e7739_s3126_r10201_p4060
mc16_13TeV.312499.Sh_227_NN30NNLO_Wenu_PTV140_220_MJJ0_500_KtMerging.deriv.DAOD_EXOT5.e7739_s3126_r10201_p4060
mc16_13TeV.312500.Sh_227_NN30NNLO_Wenu_PTV140_220_MJJ500_1000_KtMerging.deriv.DAOD_EXOT5.e7739_s3126_r10201_p4060
mc16_13TeV.312501.Sh_227_NN30NNLO_Wenu_PTV140_220_MJJ1000_E_CMS_KtMerging.deriv.DAOD_EXOT5.e7739_s3126_r10201_p4060
mc16_13TeV.312502.Sh_227_NN30NNLO_Wenu_PTV220_280_MJJ0_500_KtMerging.deriv.DAOD_EXOT5.e7739_s3126_r10201_p4060
mc16_13TeV.312503.Sh_227_NN30NNLO_Wenu_PTV220_280_MJJ500_1000_KtMerging.deriv.DAOD_EXOT5.e7739_s3126_r10201_p4060
mc16_13TeV.312504.Sh_227_NN30NNLO_Wenu_PTV220_280_MJJ1000_E_CMS_KtMerging.deriv.DAOD_EXOT5.e7739_s3126_r10201_p4060
mc16_13TeV.312505.Sh_227_NN30NNLO_Wenu_PTV280_500_MJJ0_500_KtMerging.deriv.DAOD_EXOT5.e7739_s3126_r10201_p4060
mc16_13TeV.312506.Sh_227_NN30NNLO_Wenu_PTV280_500_MJJ500_1000_KtMerging.deriv.DAOD_EXOT5.e7739_s3126_r10201_p4060
mc16_13TeV.312507.Sh_227_NN30NNLO_Wenu_PTV280_500_MJJ1000_E_CMS_KtMerging.deriv.DAOD_EXOT5.e7739_s3126_r10201_p4060
mc16_13TeV.312508.Sh_227_NN30NNLO_Wmunu_PTV100_140_MJJ0_500_KtMerging.deriv.DAOD_EXOT5.e7728_s3126_r10201_p4060
mc16_13TeV.312509.Sh_227_NN30NNLO_Wmunu_PTV100_140_MJJ500_1000_KtMerging.deriv.DAOD_EXOT5.e7728_s3126_r10201_p4060
mc16_13TeV.312510.Sh_227_NN30NNLO_Wmunu_PTV100_140_MJJ1000_E_CMS_KtMerging.deriv.DAOD_EXOT5.e7728_s3126_r10201_p4060
mc16_13TeV.312511.Sh_227_NN30NNLO_Wmunu_PTV140_220_MJJ0_500_KtMerging.deriv.DAOD_EXOT5.e7728_s3126_r10201_p4060
mc16_13TeV.312512.Sh_227_NN30NNLO_Wmunu_PTV140_220_MJJ500_1000_KtMerging.deriv.DAOD_EXOT5.e7728_s3126_r10201_p4060
mc16_13TeV.312513.Sh_227_NN30NNLO_Wmunu_PTV140_220_MJJ1000_E_CMS_KtMerging.deriv.DAOD_EXOT5.e7728_s3126_r10201_p4060
mc16_13TeV.312514.Sh_227_NN30NNLO_Wmunu_PTV220_280_MJJ0_500_KtMerging.deriv.DAOD_EXOT5.e7728_s3126_r10201_p4060
mc16_13TeV.312515.Sh_227_NN30NNLO_Wmunu_PTV220_280_MJJ500_1000_KtMerging.deriv.DAOD_EXOT5.e7728_s3126_r10201_p4060
mc16_13TeV.312516.Sh_227_NN30NNLO_Wmunu_PTV220_280_MJJ1000_E_CMS_KtMerging.deriv.DAOD_EXOT5.e7728_s3126_r10201_p4060
mc16_13TeV.312517.Sh_227_NN30NNLO_Wmunu_PTV280_500_MJJ0_500_KtMerging.deriv.DAOD_EXOT5.e7728_s3126_r10201_p4060
mc16_13TeV.312518.Sh_227_NN30NNLO_Wmunu_PTV280_500_MJJ500_1000_KtMerging.deriv.DAOD_EXOT5.e7728_s3126_r10201_p4060
mc16_13TeV.312519.Sh_227_NN30NNLO_Wmunu_PTV280_500_MJJ1000_E_CMS_KtMerging.deriv.DAOD_EXOT5.e7728_s3126_r10201_p4060
mc16_13TeV.312520.Sh_227_NN30NNLO_Wtaunu_PTV100_140_MJJ0_500_KtMerging.deriv.DAOD_EXOT5.e7728_s3126_r10201_p4060
mc16_13TeV.312521.Sh_227_NN30NNLO_Wtaunu_PTV100_140_MJJ500_1000_KtMerging.deriv.DAOD_EXOT5.e7728_s3126_r10201_p4060
mc16_13TeV.312522.Sh_227_NN30NNLO_Wtaunu_PTV100_140_MJJ1000_E_CMS_KtMerging.deriv.DAOD_EXOT5.e7728_s3126_r10201_p4060
mc16_13TeV.312523.Sh_227_NN30NNLO_Wtaunu_PTV140_220_MJJ0_500_KtMerging.deriv.DAOD_EXOT5.e7728_s3126_r10201_p4060
mc16_13TeV.312524.Sh_227_NN30NNLO_Wtaunu_PTV140_220_MJJ500_1000_KtMerging.deriv.DAOD_EXOT5.e7728_s3126_r10201_p4060
mc16_13TeV.312525.Sh_227_NN30NNLO_Wtaunu_PTV140_220_MJJ1000_E_CMS_KtMerging.deriv.DAOD_EXOT5.e7728_s3126_r10201_p4060
mc16_13TeV.312526.Sh_227_NN30NNLO_Wtaunu_PTV220_280_MJJ0_500_KtMerging.deriv.DAOD_EXOT5.e7728_s3126_r10201_p4060
mc16_13TeV.312527.Sh_227_NN30NNLO_Wtaunu_PTV220_280_MJJ500_1000_KtMerging.deriv.DAOD_EXOT5.e7728_s3126_r10201_p4060
mc16_13TeV.312528.Sh_227_NN30NNLO_Wtaunu_PTV220_280_MJJ1000_E_CMS_KtMerging.deriv.DAOD_EXOT5.e7728_s3126_r10201_p4060
mc16_13TeV.312529.Sh_227_NN30NNLO_Wtaunu_PTV280_500_MJJ0_500_KtMerging.deriv.DAOD_EXOT5.e7728_s3126_r10201_p4060
mc16_13TeV.312530.Sh_227_NN30NNLO_Wtaunu_PTV280_500_MJJ500_1000_KtMerging.deriv.DAOD_EXOT5.e7728_s3126_r10201_p4060
mc16_13TeV.312531.Sh_227_NN30NNLO_Wtaunu_PTV280_500_MJJ1000_E_CMS_KtMerging.deriv.DAOD_EXOT5.e7728_s3126_r10201_p4060