
# NAME 		: MGPy8EG_A14N23LO_SM_N2C1m_%5_%6_1LMET50_MadSpin
# DATA 		: 0
# AF2 		: 1
# PRIORITY 	: 0

mc16_13TeV.396171.MGPy8EG_A14N23LO_SM_N2C1m_81_80_1LMET50_MadSpin.deriv.DAOD_SUSY16.e6835_e5984_a875_r9364_r9315_p3565       
mc16_13TeV.396172.MGPy8EG_A14N23LO_SM_N2C1m_82_80_1LMET50_MadSpin.deriv.DAOD_SUSY16.e6835_e5984_a875_r9364_r9315_p3565
mc16_13TeV.396198.MGPy8EG_A14N23LO_SM_N2C1m_83_80_1LMET50_MadSpin.deriv.DAOD_SUSY16.e6835_e5984_a875_r9364_r9315_p3565
mc16_13TeV.396173.MGPy8EG_A14N23LO_SM_N2C1m_85_80_1LMET50_MadSpin.deriv.DAOD_SUSY16.e6835_e5984_a875_r9364_r9315_p3565                   
mc16_13TeV.396174.MGPy8EG_A14N23LO_SM_N2C1m_101_100_1LMET50_MadSpin.deriv.DAOD_SUSY16.e6835_e5984_a875_r9364_r9315_p3565     
mc16_13TeV.396175.MGPy8EG_A14N23LO_SM_N2C1m_102_100_1LMET50_MadSpin.deriv.DAOD_SUSY16.e6835_e5984_a875_r9364_r9315_p3565
mc16_13TeV.396199.MGPy8EG_A14N23LO_SM_N2C1m_103_100_1LMET50_MadSpin.deriv.DAOD_SUSY16.e6835_e5984_a875_r9364_r9315_p3565
mc16_13TeV.396176.MGPy8EG_A14N23LO_SM_N2C1m_105_100_1LMET50_MadSpin.deriv.DAOD_SUSY16.e6835_e5984_a875_r9364_r9315_p3565     
mc16_13TeV.396177.MGPy8EG_A14N23LO_SM_N2C1m_126_125_1LMET50_MadSpin.deriv.DAOD_SUSY16.e6835_e5984_a875_r9364_r9315_p3565
mc16_13TeV.396178.MGPy8EG_A14N23LO_SM_N2C1m_127_125_1LMET50_MadSpin.deriv.DAOD_SUSY16.e6835_e5984_a875_r9364_r9315_p3565                 
mc16_13TeV.396200.MGPy8EG_A14N23LO_SM_N2C1m_128_125_1LMET50_MadSpin.deriv.DAOD_SUSY16.e6835_e5984_a875_r9364_r9315_p3565                 
mc16_13TeV.396179.MGPy8EG_A14N23LO_SM_N2C1m_130_125_1LMET50_MadSpin.deriv.DAOD_SUSY16.e6835_e5984_a875_r9364_r9315_p3565
mc16_13TeV.396180.MGPy8EG_A14N23LO_SM_N2C1m_152_150_1LMET50_MadSpin.deriv.DAOD_SUSY16.e6835_e5984_a875_r9364_r9315_p3565
mc16_13TeV.396181.MGPy8EG_A14N23LO_SM_N2C1m_155_150_1LMET50_MadSpin.deriv.DAOD_SUSY16.e6835_e5984_a875_r9364_r9315_p3565
