
# NAME 		: MGPy8EG_A14N23LO_SM_C1C1HHVBFQED_%5_%6_2L2MET75_MadSpin
# DATA 		: 0
# AF2 		: 1
# PRIORITY 	: 0

mc16_13TeV.396549.MGPy8EG_A14N23LO_SM_C1C1HHVBFQED_115_110_2L2MET75_MadSpin.deriv.DAOD_SUSY16.e7034_a875_r10724_p3652
mc16_13TeV.396550.MGPy8EG_A14N23LO_SM_C1C1HHVBFQED_120_110_2L2MET75_MadSpin.deriv.DAOD_SUSY16.e7034_a875_r10724_p3652
mc16_13TeV.396551.MGPy8EG_A14N23LO_SM_C1C1HHVBFQED_140_110_2L2MET75_MadSpin.deriv.DAOD_SUSY16.e7034_a875_r10724_p3652
mc16_13TeV.396552.MGPy8EG_A14N23LO_SM_C1C1HHVBFQED_150_110_2L2MET75_MadSpin.deriv.DAOD_SUSY16.e7034_a875_r10724_p3652
mc16_13TeV.396553.MGPy8EG_A14N23LO_SM_C1C1HHVBFQED_130_125_2L2MET75_MadSpin.deriv.DAOD_SUSY16.e7034_a875_r10724_p3652
mc16_13TeV.396554.MGPy8EG_A14N23LO_SM_C1C1HHVBFQED_135_125_2L2MET75_MadSpin.deriv.DAOD_SUSY16.e7034_a875_r10724_p3652
