
# NAME 		: MGPy8EG_A14N23LO_NUHM2_mu_%5_m12_%6_N2N1_2L2MET75_MS
# DATA 		: 0
# AF2 		: 1
# PRIORITY 	: 0

mc16_13TeV.397456.MGPy8EG_A14N23LO_NUHM2_mu_90_m12_3000_N2N1_2L2MET75_MS.deriv.DAOD_SUSY16.e7222_a875_r10724_p3652
mc16_13TeV.397457.MGPy8EG_A14N23LO_NUHM2_mu_90_m12_5000_N2N1_2L2MET75_MS.deriv.DAOD_SUSY16.e7222_a875_r10724_p3652
mc16_13TeV.397458.MGPy8EG_A14N23LO_NUHM2_mu_90_m12_8000_N2N1_2L2MET75_MS.deriv.DAOD_SUSY16.e7222_a875_r10724_p3652
mc16_13TeV.397459.MGPy8EG_A14N23LO_NUHM2_mu_100_m12_800_N2N1_2L2MET75_MS.deriv.DAOD_SUSY16.e7222_a875_r10724_p3652
mc16_13TeV.397460.MGPy8EG_A14N23LO_NUHM2_mu_100_m12_1200_N2N1_2L2MET75_MS.deriv.DAOD_SUSY16.e7222_a875_r10724_p3652
mc16_13TeV.397461.MGPy8EG_A14N23LO_NUHM2_mu_100_m12_2000_N2N1_2L2MET75_MS.deriv.DAOD_SUSY16.e7222_a875_r10724_p3652
mc16_13TeV.397462.MGPy8EG_A14N23LO_NUHM2_mu_100_m12_3000_N2N1_2L2MET75_MS.deriv.DAOD_SUSY16.e7222_a875_r10724_p3652
mc16_13TeV.397463.MGPy8EG_A14N23LO_NUHM2_mu_100_m12_5000_N2N1_2L2MET75_MS.deriv.DAOD_SUSY16.e7222_a875_r10724_p3652
mc16_13TeV.397464.MGPy8EG_A14N23LO_NUHM2_mu_100_m12_8000_N2N1_2L2MET75_MS.deriv.DAOD_SUSY16.e7222_a875_r10724_p3652
mc16_13TeV.397465.MGPy8EG_A14N23LO_NUHM2_mu_110_m12_350_N2N1_2L2MET75_MS.deriv.DAOD_SUSY16.e7222_a875_r10724_p3652
mc16_13TeV.397466.MGPy8EG_A14N23LO_NUHM2_mu_110_m12_500_N2N1_2L2MET75_MS.deriv.DAOD_SUSY16.e7222_a875_r10724_p3652
mc16_13TeV.397467.MGPy8EG_A14N23LO_NUHM2_mu_110_m12_800_N2N1_2L2MET75_MS.deriv.DAOD_SUSY16.e7222_a875_r10724_p3652
mc16_13TeV.397468.MGPy8EG_A14N23LO_NUHM2_mu_110_m12_1200_N2N1_2L2MET75_MS.deriv.DAOD_SUSY16.e7222_a875_r10724_p3652
mc16_13TeV.397469.MGPy8EG_A14N23LO_NUHM2_mu_110_m12_2000_N2N1_2L2MET75_MS.deriv.DAOD_SUSY16.e7222_a875_r10724_p3652
mc16_13TeV.397470.MGPy8EG_A14N23LO_NUHM2_mu_110_m12_3000_N2N1_2L2MET75_MS.deriv.DAOD_SUSY16.e7222_a875_r10724_p3652
mc16_13TeV.397471.MGPy8EG_A14N23LO_NUHM2_mu_110_m12_5000_N2N1_2L2MET75_MS.deriv.DAOD_SUSY16.e7222_a875_r10724_p3652
mc16_13TeV.397472.MGPy8EG_A14N23LO_NUHM2_mu_110_m12_8000_N2N1_2L2MET75_MS.deriv.DAOD_SUSY16.e7222_a875_r10724_p3652
mc16_13TeV.397473.MGPy8EG_A14N23LO_NUHM2_mu_130_m12_350_N2N1_2L2MET75_MS.deriv.DAOD_SUSY16.e7222_a875_r10724_p3652
mc16_13TeV.397474.MGPy8EG_A14N23LO_NUHM2_mu_130_m12_500_N2N1_2L2MET75_MS.deriv.DAOD_SUSY16.e7222_a875_r10724_p3652
mc16_13TeV.397475.MGPy8EG_A14N23LO_NUHM2_mu_130_m12_800_N2N1_2L2MET75_MS.deriv.DAOD_SUSY16.e7222_a875_r10724_p3652
mc16_13TeV.397476.MGPy8EG_A14N23LO_NUHM2_mu_130_m12_1200_N2N1_2L2MET75_MS.deriv.DAOD_SUSY16.e7222_a875_r10724_p3652
mc16_13TeV.397477.MGPy8EG_A14N23LO_NUHM2_mu_130_m12_2000_N2N1_2L2MET75_MS.deriv.DAOD_SUSY16.e7222_a875_r10724_p3652
mc16_13TeV.397478.MGPy8EG_A14N23LO_NUHM2_mu_130_m12_3000_N2N1_2L2MET75_MS.deriv.DAOD_SUSY16.e7222_a875_r10724_p3652
mc16_13TeV.397479.MGPy8EG_A14N23LO_NUHM2_mu_130_m12_5000_N2N1_2L2MET75_MS.deriv.DAOD_SUSY16.e7222_a875_r10724_p3652
mc16_13TeV.397480.MGPy8EG_A14N23LO_NUHM2_mu_130_m12_8000_N2N1_2L2MET75_MS.deriv.DAOD_SUSY16.e7222_a875_r10724_p3652
mc16_13TeV.397481.MGPy8EG_A14N23LO_NUHM2_mu_150_m12_350_N2N1_2L2MET75_MS.deriv.DAOD_SUSY16.e7222_a875_r10724_p3652
mc16_13TeV.397482.MGPy8EG_A14N23LO_NUHM2_mu_150_m12_500_N2N1_2L2MET75_MS.deriv.DAOD_SUSY16.e7222_a875_r10724_p3652
mc16_13TeV.397483.MGPy8EG_A14N23LO_NUHM2_mu_150_m12_800_N2N1_2L2MET75_MS.deriv.DAOD_SUSY16.e7222_a875_r10724_p3652
mc16_13TeV.397484.MGPy8EG_A14N23LO_NUHM2_mu_150_m12_1200_N2N1_2L2MET75_MS.deriv.DAOD_SUSY16.e7222_a875_r10724_p3652
mc16_13TeV.397485.MGPy8EG_A14N23LO_NUHM2_mu_150_m12_2000_N2N1_2L2MET75_MS.deriv.DAOD_SUSY16.e7222_a875_r10724_p3652
mc16_13TeV.397486.MGPy8EG_A14N23LO_NUHM2_mu_150_m12_3000_N2N1_2L2MET75_MS.deriv.DAOD_SUSY16.e7222_a875_r10724_p3652
mc16_13TeV.397487.MGPy8EG_A14N23LO_NUHM2_mu_150_m12_5000_N2N1_2L2MET75_MS.deriv.DAOD_SUSY16.e7222_a875_r10724_p3652
mc16_13TeV.397488.MGPy8EG_A14N23LO_NUHM2_mu_150_m12_8000_N2N1_2L2MET75_MS.deriv.DAOD_SUSY16.e7222_a875_r10724_p3652
mc16_13TeV.397489.MGPy8EG_A14N23LO_NUHM2_mu_170_m12_350_N2N1_2L2MET75_MS.deriv.DAOD_SUSY16.e7222_a875_r10724_p3652
mc16_13TeV.397490.MGPy8EG_A14N23LO_NUHM2_mu_170_m12_500_N2N1_2L2MET75_MS.deriv.DAOD_SUSY16.e7222_a875_r10724_p3652
mc16_13TeV.397491.MGPy8EG_A14N23LO_NUHM2_mu_170_m12_800_N2N1_2L2MET75_MS.deriv.DAOD_SUSY16.e7222_a875_r10724_p3652
mc16_13TeV.397492.MGPy8EG_A14N23LO_NUHM2_mu_170_m12_1200_N2N1_2L2MET75_MS.deriv.DAOD_SUSY16.e7222_a875_r10724_p3652
mc16_13TeV.397493.MGPy8EG_A14N23LO_NUHM2_mu_170_m12_2000_N2N1_2L2MET75_MS.deriv.DAOD_SUSY16.e7222_a875_r10724_p3652
mc16_13TeV.397494.MGPy8EG_A14N23LO_NUHM2_mu_170_m12_3000_N2N1_2L2MET75_MS.deriv.DAOD_SUSY16.e7222_a875_r10724_p3652
mc16_13TeV.397495.MGPy8EG_A14N23LO_NUHM2_mu_170_m12_5000_N2N1_2L2MET75_MS.deriv.DAOD_SUSY16.e7222_a875_r10724_p3652
mc16_13TeV.397496.MGPy8EG_A14N23LO_NUHM2_mu_200_m12_350_N2N1_2L2MET75_MS.deriv.DAOD_SUSY16.e7222_a875_r10724_p3652
mc16_13TeV.397497.MGPy8EG_A14N23LO_NUHM2_mu_200_m12_500_N2N1_2L2MET75_MS.deriv.DAOD_SUSY16.e7222_a875_r10724_p3652
mc16_13TeV.397498.MGPy8EG_A14N23LO_NUHM2_mu_200_m12_800_N2N1_2L2MET75_MS.deriv.DAOD_SUSY16.e7222_a875_r10724_p3652
mc16_13TeV.397499.MGPy8EG_A14N23LO_NUHM2_mu_200_m12_1200_N2N1_2L2MET75_MS.deriv.DAOD_SUSY16.e7222_a875_r10724_p3652
mc16_13TeV.397500.MGPy8EG_A14N23LO_NUHM2_mu_200_m12_2000_N2N1_2L2MET75_MS.deriv.DAOD_SUSY16.e7222_a875_r10724_p3652
mc16_13TeV.397501.MGPy8EG_A14N23LO_NUHM2_mu_200_m12_3000_N2N1_2L2MET75_MS.deriv.DAOD_SUSY16.e7222_a875_r10724_p3652
mc16_13TeV.397502.MGPy8EG_A14N23LO_NUHM2_mu_200_m12_5000_N2N1_2L2MET75_MS.deriv.DAOD_SUSY16.e7222_a875_r10724_p3652
